{
  "project_info": {
    "project_number": "971943687471",
    "project_id": "flutter-bloc-notes-4db16",
    "storage_bucket": "flutter-bloc-notes-4db16.appspot.com"
  },
  "client": [
    {
      "client_info": {
        "mobilesdk_app_id": "1:971943687471:android:896fc6dffd1632cf651dda",
        "android_client_info": {
          "package_name": "com.example.firebase_bloc_notes"
        }
      },
      "oauth_client": [
        {
          "client_id": "971943687471-g3qsljboa430o5lv8rnk01ci3v8hcg4n.apps.googleusercontent.com",
          "client_type": 3
        }
      ],
      "api_key": [
        {
          "current_key": "AIzaSyAJ9Z_NrUvXEEnhMWrpqH4DX5SYNcyQ2g4"
        }
      ],
      "services": {
        "appinvite_service": {
          "other_platform_oauth_client": [
            {
              "client_id": "971943687471-g3qsljboa430o5lv8rnk01ci3v8hcg4n.apps.googleusercontent.com",
              "client_type": 3
            }
          ]
        }
      }
    }
  ],
  "configuration_version": "1"
}